…
``` r
my_path <- file.path("~/Documents/Bigelow/data/Qry_Phytoplankton Total Cell_L DATA.XLSX")
```

The package `readxl` provides tools for reading excel files (ie .xls and
.xlsx)

``` r
x <- read_excel(path = my_path)

x
```

    ## # A tibble: 16,459 × 9
    ##    `Date Collected`    Station           Depth   Specie      `Microscope fields`
    ##    <dttm>              <chr>             <chr>   <chr>                     <dbl>
    ##  1 2022-02-07 00:00:00 Production Area 2 surface Stephanopy…                   2
    ##  2 2022-02-07 00:00:00 Production Area 2 surface Striatella…                   2
    ##  3 2022-02-07 00:00:00 Production Area 2 surface Synedra sp                    2
    ##  4 2022-02-07 00:00:00 Production Area 2 surface Thalassios…                   2
    ##  5 2022-02-07 00:00:00 Production Area 2 surface Actinocycl…                   2
    ##  6 2022-02-07 00:00:00 Production Area 2 surface Alexandriu…                   2
    ##  7 2022-02-07 00:00:00 Production Area 2 surface Cylindroth…                   2
    ##  8 2022-02-07 00:00:00 Production Area 2 surface Diplopsali…                   2
    ##  9 2022-02-07 00:00:00 Production Area 2 surface Gymnodiniu…                   2
    ## 10 2022-02-07 00:00:00 Production Area 2 surface Navicula s…                   2
    ## # ℹ 16,449 more rows
    ## # ℹ 4 more variables: `SumOfTransect Count` <dbl>, `Cells/L` <dbl>,
    ## #   Groups <chr>, `Toxin producing species` <chr>
…
`View()` also allows you to open the data.frame in a new window to
explore by hand

## Working on data frames using dplyr

We can print the data.frame to look at by just calling its name

Notice that all of the columns don’t fit onto the page, but you can use
the right arrow to see the others

``` r
x
```

    ## # A tibble: 16,459 × 9
    ##    `Date Collected`    Station           Depth   Specie      `Microscope fields`
    ##    <dttm>              <chr>             <chr>   <chr>                     <dbl>
    ##  1 2022-02-07 00:00:00 Production Area 2 surface Stephanopy…                   2
    ##  2 2022-02-07 00:00:00 Production Area 2 surface Striatella…                   2
    ##  3 2022-02-07 00:00:00 Production Area 2 surface Synedra sp                    2
    ##  4 2022-02-07 00:00:00 Production Area 2 surface Thalassios…                   2
    ##  5 2022-02-07 00:00:00 Production Area 2 surface Actinocycl…                   2
    ##  6 2022-02-07 00:00:00 Production Area 2 surface Alexandriu…                   2
    ##  7 2022-02-07 00:00:00 Production Area 2 surface Cylindroth…                   2
    ##  8 2022-02-07 00:00:00 Production Area 2 surface Diplopsali…                   2
    ##  9 2022-02-07 00:00:00 Production Area 2 surface Gymnodiniu…                   2
    ## 10 2022-02-07 00:00:00 Production Area 2 surface Navicula s…                   2
    ## # ℹ 16,449 more rows
    ## # ℹ 4 more variables: `SumOfTransect Count` <dbl>, `Cells/L` <dbl>,
    ## #   Groups <chr>, `Toxin producing species` <chr>

### Subsetting columns

`select()` lets us subset specified columns

``` r
select(x, `Date Collected`, Station, Specie, `Cells/L`)
```

    ## # A tibble: 16,459 × 4
    ##    `Date Collected`    Station           Specie                   `Cells/L`
    ##    <dttm>              <chr>             <chr>                        <dbl>
    ##  1 2022-02-07 00:00:00 Production Area 2 Stephanopyxis turris          371.
    ##  2 2022-02-07 00:00:00 Production Area 2 Striatella sp.                186.
    ##  3 2022-02-07 00:00:00 Production Area 2 Synedra sp                   5384.
    ##  4 2022-02-07 00:00:00 Production Area 2 Thalassiosira sp.            1114.
    ##  5 2022-02-07 00:00:00 Production Area 2 Actinocyclus sp               371.
    ##  6 2022-02-07 00:00:00 Production Area 2 Alexandrium sp.               371.
    ##  7 2022-02-07 00:00:00 Production Area 2 Cylindrotheca closterium    21905.
    ##  8 2022-02-07 00:00:00 Production Area 2 Diplopsalis sp.               186.
    ##  9 2022-02-07 00:00:00 Production Area 2 Gymnodinium sp.              2413.
    ## 10 2022-02-07 00:00:00 Production Area 2 Navicula sp.                20977.
    ## # ℹ 16,449 more rows

The pipe operator `|>` passes the result of the content on its left as
the first argument to the function on its right

The code below yields the same result as the code just above

``` r
x |>
  select(`Date Collected`, Station, Specie, `Cells/L`)
```

    ## # A tibble: 16,459 × 4
    ##    `Date Collected`    Station           Specie                   `Cells/L`
    ##    <dttm>              <chr>             <chr>                        <dbl>
    ##  1 2022-02-07 00:00:00 Production Area 2 Stephanopyxis turris          371.
    ##  2 2022-02-07 00:00:00 Production Area 2 Striatella sp.                186.
    ##  3 2022-02-07 00:00:00 Production Area 2 Synedra sp                   5384.
    ##  4 2022-02-07 00:00:00 Production Area 2 Thalassiosira sp.            1114.
    ##  5 2022-02-07 00:00:00 Production Area 2 Actinocyclus sp               371.
    ##  6 2022-02-07 00:00:00 Production Area 2 Alexandrium sp.               371.
    ##  7 2022-02-07 00:00:00 Production Area 2 Cylindrotheca closterium    21905.
    ##  8 2022-02-07 00:00:00 Production Area 2 Diplopsalis sp.               186.
    ##  9 2022-02-07 00:00:00 Production Area 2 Gymnodinium sp.              2413.
    ## 10 2022-02-07 00:00:00 Production Area 2 Navicula sp.                20977.
    ## # ℹ 16,449 more rows

### Filtering values

`filter()` is for getting a subset of rows based on a condition

``` r
x |>
  mutate(Groups = tolower(Groups))
```

    ## # A tibble: 16,459 × 9
    ##    `Date Collected`    Station           Depth   Specie      `Microscope fields`
    ##    <dttm>              <chr>             <chr>   <chr>                     <dbl>
    ##  1 2022-02-07 00:00:00 Production Area 2 surface Stephanopy…                   2
    ##  2 2022-02-07 00:00:00 Production Area 2 surface Striatella…                   2
    ##  3 2022-02-07 00:00:00 Production Area 2 surface Synedra sp                    2
    ##  4 2022-02-07 00:00:00 Production Area 2 surface Thalassios…                   2
    ##  5 2022-02-07 00:00:00 Production Area 2 surface Actinocycl…                   2
    ##  6 2022-02-07 00:00:00 Production Area 2 surface Alexandriu…                   2
    ##  7 2022-02-07 00:00:00 Production Area 2 surface Cylindroth…                   2
    ##  8 2022-02-07 00:00:00 Production Area 2 surface Diplopsali…                   2
    ##  9 2022-02-07 00:00:00 Production Area 2 surface Gymnodiniu…                   2
    ## 10 2022-02-07 00:00:00 Production Area 2 surface Navicula s…                   2
    ## # ℹ 16,449 more rows
    ## # ℹ 4 more variables: `SumOfTransect Count` <dbl>, `Cells/L` <dbl>,
    ## #   Groups <chr>, `Toxin producing species` <chr>

``` r
x |>
  filter(`Cells/L` < 100)
```

    ## # A tibble: 204 × 9
    ##    `Date Collected`    Station           Depth     Specie    `Microscope fields`
    ##    <dttm>              <chr>             <chr>     <chr>                   <dbl>
    ##  1 2022-02-07 00:00:00 Production Area 2 surface   Prorocen…                   1
    ##  2 2022-02-07 00:00:00 Production Area 2 surface   Prorocen…                   1
    ##  3 2022-02-07 00:00:00 Production Area 2 surface   Prorocen…                   1
    ##  4 2022-02-07 00:00:00 Production Area 2 surface   Prorocen…                   1
    ##  5 2022-02-07 00:00:00 Production Area 2 surface   Prorocen…                   1
    ##  6 2022-02-07 00:00:00 Production Area 7 surface   Dinophys…                   1
    ##  7 2022-01-27 00:00:00 Production Area 3 composite Prorocen…                   1
    ##  8 2022-01-27 00:00:00 Production Area 3 composite Prorocen…                   1
    ##  9 2022-01-27 00:00:00 Production Area 3 surface   Prorocen…                   1
    ## 10 2022-01-24 00:00:00 Production Area 3 surface   Dinophys…                   1
    ## # ℹ 194 more rows
    ## # ℹ 4 more variables: `SumOfTransect Count` <dbl>, `Cells/L` <dbl>,
    ## #   Groups <chr>, `Toxin producing species` <chr>

The pipe operator is useful for chaining together operations on our
data.frame

``` r
x |> 
  select(`Date Collected`, Station, Specie, `Cells/L`) |>
  filter(`Cells/L` < 100)
```

    ## # A tibble: 204 × 4
    ##    `Date Collected`    Station           Specie               `Cells/L`
    ##    <dttm>              <chr>             <chr>                    <dbl>
    ##  1 2022-02-07 00:00:00 Production Area 2 Prorocentrum cf lima        80
    ##  2 2022-02-07 00:00:00 Production Area 2 Prorocentrum lima           80
    ##  3 2022-02-07 00:00:00 Production Area 2 Prorocentrum cf lima        80
    ##  4 2022-02-07 00:00:00 Production Area 2 Prorocentrum lima           80
    ##  5 2022-02-07 00:00:00 Production Area 2 Prorocentrum lima           80
    ##  6 2022-02-07 00:00:00 Production Area 7 Dinophysis acuminata        40
    ##  7 2022-01-27 00:00:00 Production Area 3 Prorocentrum lima           40
    ##  8 2022-01-27 00:00:00 Production Area 3 Prorocentrum lima           40
    ##  9 2022-01-27 00:00:00 Production Area 3 Prorocentrum lima           40
    ## 10 2022-01-24 00:00:00 Production Area 3 Dinophysis acuminata        40
    ## # ℹ 194 more rows

Subsetting by character string

``` r
x |>
  filter(Station == "Production Area 1")
```

    ## # A tibble: 2,749 × 9
    ##    `Date Collected`    Station           Depth     Specie    `Microscope fields`
    ##    <dttm>              <chr>             <chr>     <chr>                   <dbl>
    ##  1 2021-12-14 00:00:00 Production Area 1 composite Chaetoce…                   2
    ##  2 2021-12-14 00:00:00 Production Area 1 composite Gonyaula…                   2
    ##  3 2021-12-14 00:00:00 Production Area 1 composite Corethro…                   2
    ##  4 2021-12-14 00:00:00 Production Area 1 composite Dinophys…                   1
    ##  5 2021-12-14 00:00:00 Production Area 1 composite Dinophys…                   1
    ##  6 2021-12-14 00:00:00 Production Area 1 composite Dictyoch…                   2
    ##  7 2021-12-14 00:00:00 Production Area 1 composite Dactylio…                   2
    ##  8 2021-12-14 00:00:00 Production Area 1 composite Cylindro…                   2
    ##  9 2021-12-14 00:00:00 Production Area 1 composite Coscinod…                   2
    ## 10 2021-12-14 00:00:00 Production Area 1 composite Chaetoce…                   2
    ## # ℹ 2,739 more rows
    ## # ℹ 4 more variables: `SumOfTransect Count` <dbl>, `Cells/L` <dbl>,
    ## #   Groups <chr>, `Toxin producing species` <chr>

### Mutating new columns

`mutate()` - change or make new columns

``` r
x |>
  mutate(id = paste(`Date Collected`, Station, Specie, sep="_"))
```

    ## # A tibble: 16,459 × 10
    ##    `Date Collected`    Station           Depth   Specie      `Microscope fields`
    ##    <dttm>              <chr>             <chr>   <chr>                     <dbl>
    ##  1 2022-02-07 00:00:00 Production Area 2 surface Stephanopy…                   2
    ##  2 2022-02-07 00:00:00 Production Area 2 surface Striatella…                   2
    ##  3 2022-02-07 00:00:00 Production Area 2 surface Synedra sp                    2
    ##  4 2022-02-07 00:00:00 Production Area 2 surface Thalassios…                   2
    ##  5 2022-02-07 00:00:00 Production Area 2 surface Actinocycl…                   2
    ##  6 2022-02-07 00:00:00 Production Area 2 surface Alexandriu…                   2
    ##  7 2022-02-07 00:00:00 Production Area 2 surface Cylindroth…                   2
    ##  8 2022-02-07 00:00:00 Production Area 2 surface Diplopsali…                   2
    ##  9 2022-02-07 00:00:00 Production Area 2 surface Gymnodiniu…                   2
    ## 10 2022-02-07 00:00:00 Production Area 2 surface Navicula s…                   2
    ## # ℹ 16,449 more rows
    ## # ℹ 5 more variables: `SumOfTransect Count` <dbl>, `Cells/L` <dbl>,
    ## #   Groups <chr>, `Toxin producing species` <chr>, id <chr>
…
    ## [1] "Feb"

### Renaming columns

`rename()` will change the name of columns

Use the syntax `new_name = old_name` in the arguments

``` r
rename(x, date = `Date Collected`)
```

    ## # A tibble: 16,459 × 12
    ##    date                Station           Depth   Specie      `Microscope fields`
    ##    <dttm>              <chr>             <chr>   <chr>                     <dbl>
    ##  1 2022-02-07 00:00:00 Production Area 2 surface Stephanopy…                   2
    ##  2 2022-02-07 00:00:00 Production Area 2 surface Striatella…                   2
    ##  3 2022-02-07 00:00:00 Production Area 2 surface Synedra sp                    2
    ##  4 2022-02-07 00:00:00 Production Area 2 surface Thalassios…                   2
    ##  5 2022-02-07 00:00:00 Production Area 2 surface Actinocycl…                   2
    ##  6 2022-02-07 00:00:00 Production Area 2 surface Alexandriu…                   2
    ##  7 2022-02-07 00:00:00 Production Area 2 surface Cylindroth…                   2
    ##  8 2022-02-07 00:00:00 Production Area 2 surface Diplopsali…                   2
    ##  9 2022-02-07 00:00:00 Production Area 2 surface Gymnodiniu…                   2
    ## 10 2022-02-07 00:00:00 Production Area 2 surface Navicula s…                   2
    ## # ℹ 16,449 more rows
    ## # ℹ 7 more variables: `SumOfTransect Count` <dbl>, `Cells/L` <dbl>,
    ## #   Groups <chr>, `Toxin producing species` <chr>, month <chr>, week <chr>,
    ## #   year <chr>

### Ordering rows

`arrange()` updates the row order by a column

``` r
arrange(x, `Cells/L`)
```

    ## # A tibble: 16,459 × 12
    ##    `Date Collected`    Station           Depth     Specie    `Microscope fields`
    ##    <dttm>              <chr>             <chr>     <chr>                   <dbl>
    ##  1 2019-04-08 00:00:00 Production Area 1 composite Tintinni…                   2
    ##  2 2022-02-07 00:00:00 Production Area 7 surface   Dinophys…                   1
    ##  3 2022-01-27 00:00:00 Production Area 3 composite Prorocen…                   1
    ##  4 2022-01-27 00:00:00 Production Area 3 composite Prorocen…                   1
    ##  5 2022-01-27 00:00:00 Production Area 3 surface   Prorocen…                   1
    ##  6 2022-01-24 00:00:00 Production Area 3 surface   Dinophys…                   1
    ##  7 2022-01-24 00:00:00 Production Area 3 surface   Prorocen…                   1
    ##  8 2022-01-24 00:00:00 Production Area 3 surface   Dinophys…                   1
    ##  9 2022-01-17 00:00:00 Production Area 8 surface   Dinophys…                   1
    ## 10 2021-12-06 00:00:00 Production Area 3 surface   Dinophys…                   1
    ## # ℹ 16,449 more rows
    ## # ℹ 7 more variables: `SumOfTransect Count` <dbl>, `Cells/L` <dbl>,
    ## #   Groups <chr>, `Toxin producing species` <chr>, month <chr>, week <chr>,
    ## #   year <chr>

`desc()` will order rows based on descending order of the column

``` r
arrange(x, desc(`Cells/L`))
```

    ## # A tibble: 16,459 × 12
    ##    `Date Collected`    Station           Depth     Specie    `Microscope fields`
    ##    <dttm>              <chr>             <chr>     <chr>                   <dbl>
    ##  1 2018-12-12 00:00:00 Production Area 5 surface   "Heteros…                   2
    ##  2 2018-12-12 00:00:00 Production Area 5 surface   "Heteroc…                   2
    ##  3 2021-05-17 00:00:00 Production Area 2 surface   "Cylindr…                   2
    ##  4 2019-07-08 00:00:00 Production Area 1 composite "Asterio…                   2
    ##  5 2019-07-01 00:00:00 Production Area 1 composite "Chaetoc…                   2
    ##  6 2019-07-08 00:00:00 Production Area 1 composite "Chaetoc…                   2
    ##  7 2021-05-18 00:00:00 Production Area 1 composite "Cylindr…                   2
    ##  8 2019-11-11 00:00:00 Production Area 1 composite "Skeleto…                   2
    ##  9 2019-06-10 00:00:00 Production Area 1 composite "Skeleto…                   2
    ## 10 2019-03-18 00:00:00 Production Area 1 composite "Thalass…                   2
    ## # ℹ 16,449 more rows
    ## # ℹ 7 more variables: `SumOfTransect Count` <dbl>, `Cells/L` <dbl>,
    ## #   Groups <chr>, `Toxin producing species` <chr>, month <chr>, week <chr>,
    ## #   year <chr>

# *Alexandrium* data

``` r
al <- filter(x, Specie %in% c("Alexandrium sp.", "Alexandrium Tamarense", "Alexandrium acatenella", "Alexandrium catenella", "Alexandrium minutum", "alexandrium Tamarense"))
```

``` r
al
```

    ## # A tibble: 197 × 12
    ##    `Date Collected`    Station           Depth     Specie    `Microscope fields`
    ##    <dttm>              <chr>             <chr>     <chr>                   <dbl>
    ##  1 2022-02-07 00:00:00 Production Area 2 surface   Alexandr…                   2
    ##  2 2022-02-07 00:00:00 Production Area 2 surface   Alexandr…                   2
    ##  3 2022-02-07 00:00:00 Production Area 2 surface   Alexandr…                   2
    ##  4 2022-01-31 00:00:00 Production Area 2 surface   Alexandr…                   2
    ##  5 2022-01-24 00:00:00 Production Area 2 surface   Alexandr…                   2
    ##  6 2022-01-17 00:00:00 Production Area 2 composite Alexandr…                   2
    ##  7 2021-12-28 00:00:00 Production Area 2 composite Alexandr…                   2
    ##  8 2021-09-27 00:00:00 Production Area 2 surface   Alexandr…                   2
    ##  9 2021-09-20 00:00:00 Production Area 2 surface   Alexandr…                   2
    ## 10 2021-09-06 00:00:00 Production Area 2 surface   Alexandr…                   2
    ## # ℹ 187 more rows
    ## # ℹ 7 more variables: `SumOfTransect Count` <dbl>, `Cells/L` <dbl>,
    ## #   Groups <chr>, `Toxin producing species` <chr>, month <chr>, week <chr>,
    ## #   year <chr>
…
